digraph "RandomPlanets"
{
 // LATEX_PDF_SIZE
  bgcolor="transparent";
  edge [fontname=Helvetica,fontsize=10,labelfontname=Helvetica,labelfontsize=10];
  node [fontname=Helvetica,fontsize=10,shape=box,height=0.2,width=0.4];
  Node1 [id="Node000001",label="RandomPlanets",height=0.2,width=0.4,color="gray40", fillcolor="grey60", style="filled", fontcolor="black",tooltip=" "];
  Node2 -> Node1 [id="edge1_Node000001_Node000002",dir="back",color="steelblue1",style="solid",tooltip=" "];
  Node2 [id="Node000002",label="testing::Test",height=0.2,width=0.4,color="gray40", fillcolor="white", style="filled",tooltip=" "];
  Node3 -> Node1 [id="edge2_Node000001_Node000003",dir="back",color="darkorchid3",style="dashed",tooltip=" ",label=" system",fontcolor="grey" ];
  Node3 [id="Node000003",label="System",height=0.2,width=0.4,color="gray40", fillcolor="white", style="filled",URL="$class_system.html",tooltip="Container for particles."];
}
