digraph "MaterialPointsFactory"
{
 // LATEX_PDF_SIZE
  bgcolor="transparent";
  edge [fontname=Helvetica,fontsize=10,labelfontname=Helvetica,labelfontsize=10];
  node [fontname=Helvetica,fontsize=10,shape=box,height=0.2,width=0.4];
  Node1 [id="Node000001",label="MaterialPointsFactory",height=0.2,width=0.4,color="gray40", fillcolor="grey60", style="filled", fontcolor="black",tooltip="Factory for material points."];
  Node2 -> Node1 [id="edge1_Node000001_Node000002",dir="back",color="steelblue1",style="solid",tooltip=" "];
  Node2 [id="Node000002",label="ParticlesFactoryInterface",height=0.2,width=0.4,color="gray40", fillcolor="white", style="filled",URL="$class_particles_factory_interface.html",tooltip="Abstract factory defining interface."];
  Node2 -> Node2 [id="edge2_Node000002_Node000002",dir="back",color="darkorchid3",style="dashed",tooltip=" ",label=" factory",fontcolor="grey" ];
}
