digraph "ComputeInteraction"
{
 // LATEX_PDF_SIZE
  bgcolor="transparent";
  edge [fontname=Helvetica,fontsize=10,labelfontname=Helvetica,labelfontsize=10];
  node [fontname=Helvetica,fontsize=10,shape=box,height=0.2,width=0.4];
  Node1 [id="Node000001",label="ComputeInteraction",height=0.2,width=0.4,color="gray40", fillcolor="grey60", style="filled", fontcolor="black",tooltip="Base class for interaction computation."];
  Node2 -> Node1 [id="edge1_Node000001_Node000002",dir="back",color="steelblue1",style="solid",tooltip=" "];
  Node2 [id="Node000002",label="Compute",height=0.2,width=0.4,color="gray40", fillcolor="white", style="filled",URL="$class_compute.html",tooltip="Base class for all compute."];
}
