digraph "ComputePotentialEnergy"
{
 // LATEX_PDF_SIZE
  bgcolor="transparent";
  edge [fontname=Helvetica,fontsize=10,labelfontname=Helvetica,labelfontsize=10];
  node [fontname=Helvetica,fontsize=10,shape=box,height=0.2,width=0.4];
  Node1 [id="Node000001",label="ComputePotentialEnergy",height=0.2,width=0.4,color="gray40", fillcolor="grey60", style="filled", fontcolor="black",tooltip="Compute potential energy of system."];
  Node2 -> Node1 [id="edge1_Node000001_Node000002",dir="back",color="steelblue1",style="solid",tooltip=" "];
  Node2 [id="Node000002",label="ComputeEnergy",height=0.2,width=0.4,color="gray40", fillcolor="white", style="filled",URL="$class_compute_energy.html",tooltip="Base class for energy computation."];
  Node3 -> Node2 [id="edge2_Node000002_Node000003",dir="back",color="steelblue1",style="solid",tooltip=" "];
  Node3 [id="Node000003",label="Compute",height=0.2,width=0.4,color="gray40", fillcolor="white", style="filled",URL="$class_compute.html",tooltip="Base class for all compute."];
}
