digraph "Particle"
{
 // LATEX_PDF_SIZE
  bgcolor="transparent";
  edge [fontname=Helvetica,fontsize=10,labelfontname=Helvetica,labelfontsize=10];
  node [fontname=Helvetica,fontsize=10,shape=box,height=0.2,width=0.4];
  Node1 [id="Node000001",label="Particle",height=0.2,width=0.4,color="gray40", fillcolor="grey60", style="filled", fontcolor="black",tooltip="Particle base class."];
  Node1 -> Node2 [id="edge1_Node000001_Node000002",dir="back",color="steelblue1",style="solid",tooltip=" "];
  Node2 [id="Node000002",label="MaterialPoint",height=0.2,width=0.4,color="gray40", fillcolor="white", style="filled",URL="$class_material_point.html",tooltip="Class for MaterialPoint."];
  Node1 -> Node3 [id="edge2_Node000001_Node000003",dir="back",color="steelblue1",style="solid",tooltip=" "];
  Node3 [id="Node000003",label="PingPongBall",height=0.2,width=0.4,color="gray40", fillcolor="white", style="filled",URL="$class_ping_pong_ball.html",tooltip="Class for ping-pong ball."];
  Node1 -> Node4 [id="edge3_Node000001_Node000004",dir="back",color="steelblue1",style="solid",tooltip=" "];
  Node4 [id="Node000004",label="Planet",height=0.2,width=0.4,color="gray40", fillcolor="white", style="filled",URL="$class_planet.html",tooltip="Class for planet."];
}
