digraph "ParticlesFactoryInterface"
{
 // LATEX_PDF_SIZE
  bgcolor="transparent";
  edge [fontname=Helvetica,fontsize=10,labelfontname=Helvetica,labelfontsize=10];
  node [fontname=Helvetica,fontsize=10,shape=box,height=0.2,width=0.4];
  Node1 [id="Node000001",label="ParticlesFactoryInterface",height=0.2,width=0.4,color="gray40", fillcolor="grey60", style="filled", fontcolor="black",tooltip="Abstract factory defining interface."];
  Node1 -> Node2 [id="edge1_Node000001_Node000002",dir="back",color="steelblue1",style="solid",tooltip=" "];
  Node2 [id="Node000002",label="MaterialPointsFactory",height=0.2,width=0.4,color="gray40", fillcolor="white", style="filled",URL="$class_material_points_factory.html",tooltip="Factory for material points."];
  Node1 -> Node3 [id="edge2_Node000001_Node000003",dir="back",color="steelblue1",style="solid",tooltip=" "];
  Node3 [id="Node000003",label="PingPongBallsFactory",height=0.2,width=0.4,color="gray40", fillcolor="white", style="filled",URL="$class_ping_pong_balls_factory.html",tooltip="Factory for ping-pong balls."];
  Node1 -> Node4 [id="edge3_Node000001_Node000004",dir="back",color="steelblue1",style="solid",tooltip=" "];
  Node4 [id="Node000004",label="PlanetsFactory",height=0.2,width=0.4,color="gray40", fillcolor="white", style="filled",URL="$class_planets_factory.html",tooltip="Factory for planet simulations."];
}
