digraph "compute_temperature.hh"
{
 // LATEX_PDF_SIZE
  bgcolor="transparent";
  edge [fontname=Helvetica,fontsize=10,labelfontname=Helvetica,labelfontsize=10];
  node [fontname=Helvetica,fontsize=10,shape=box,height=0.2,width=0.4];
  Node1 [id="Node000001",label="compute_temperature.hh",height=0.2,width=0.4,color="gray40", fillcolor="grey60", style="filled", fontcolor="black",tooltip=" "];
  Node1 -> Node2 [id="edge1_Node000001_Node000002",dir="back",color="steelblue1",style="solid",tooltip=" "];
  Node2 [id="Node000002",label="compute_temperature.cc",height=0.2,width=0.4,color="grey40", fillcolor="white", style="filled",URL="$compute__temperature_8cc.html",tooltip=" "];
  Node1 -> Node3 [id="edge2_Node000001_Node000003",dir="back",color="steelblue1",style="solid",tooltip=" "];
  Node3 [id="Node000003",label="material_points_factory.cc",height=0.2,width=0.4,color="grey40", fillcolor="white", style="filled",URL="$material__points__factory_8cc.html",tooltip=" "];
}
