digraph "compute_interaction.hh"
{
 // LATEX_PDF_SIZE
  bgcolor="transparent";
  edge [fontname=Helvetica,fontsize=10,labelfontname=Helvetica,labelfontsize=10];
  node [fontname=Helvetica,fontsize=10,shape=box,height=0.2,width=0.4];
  Node1 [id="Node000001",label="compute_interaction.hh",height=0.2,width=0.4,color="gray40", fillcolor="grey60", style="filled", fontcolor="black",tooltip=" "];
  Node1 -> Node2 [id="edge1_Node000001_Node000002",dir="back",color="steelblue1",style="solid",tooltip=" "];
  Node2 [id="Node000002",label="compute_contact.hh",height=0.2,width=0.4,color="grey40", fillcolor="white", style="filled",URL="$compute__contact_8hh.html",tooltip=" "];
  Node2 -> Node3 [id="edge2_Node000002_Node000003",dir="back",color="steelblue1",style="solid",tooltip=" "];
  Node3 [id="Node000003",label="compute_contact.cc",height=0.2,width=0.4,color="grey40", fillcolor="white", style="filled",URL="$compute__contact_8cc.html",tooltip=" "];
  Node2 -> Node4 [id="edge3_Node000002_Node000004",dir="back",color="steelblue1",style="solid",tooltip=" "];
  Node4 [id="Node000004",label="ping_pong_balls_factory.cc",height=0.2,width=0.4,color="grey40", fillcolor="white", style="filled",URL="$ping__pong__balls__factory_8cc.html",tooltip=" "];
  Node1 -> Node5 [id="edge4_Node000001_Node000005",dir="back",color="steelblue1",style="solid",tooltip=" "];
  Node5 [id="Node000005",label="compute_gravity.hh",height=0.2,width=0.4,color="grey40", fillcolor="white", style="filled",URL="$compute__gravity_8hh.html",tooltip=" "];
  Node5 -> Node6 [id="edge5_Node000005_Node000006",dir="back",color="steelblue1",style="solid",tooltip=" "];
  Node6 [id="Node000006",label="compute_gravity.cc",height=0.2,width=0.4,color="grey40", fillcolor="white", style="filled",URL="$compute__gravity_8cc.html",tooltip=" "];
  Node5 -> Node7 [id="edge6_Node000005_Node000007",dir="back",color="steelblue1",style="solid",tooltip=" "];
  Node7 [id="Node000007",label="main.cc",height=0.2,width=0.4,color="grey40", fillcolor="white", style="filled",URL="$main_8cc.html",tooltip=" "];
  Node5 -> Node8 [id="edge7_Node000005_Node000008",dir="back",color="steelblue1",style="solid",tooltip=" "];
  Node8 [id="Node000008",label="planets_factory.cc",height=0.2,width=0.4,color="grey40", fillcolor="white", style="filled",URL="$planets__factory_8cc.html",tooltip=" "];
  Node5 -> Node9 [id="edge8_Node000005_Node000009",dir="back",color="steelblue1",style="solid",tooltip=" "];
  Node9 [id="Node000009",label="test_kepler.cc",height=0.2,width=0.4,color="grey40", fillcolor="white", style="filled",URL="$test__kepler_8cc.html",tooltip=" "];
  Node1 -> Node10 [id="edge9_Node000001_Node000010",dir="back",color="steelblue1",style="solid",tooltip=" "];
  Node10 [id="Node000010",label="compute_interaction.cc",height=0.2,width=0.4,color="grey40", fillcolor="white", style="filled",URL="$compute__interaction_8cc.html",tooltip=" "];
  Node1 -> Node11 [id="edge10_Node000001_Node000011",dir="back",color="steelblue1",style="solid",tooltip=" "];
  Node11 [id="Node000011",label="compute_potential_energy.hh",height=0.2,width=0.4,color="grey40", fillcolor="white", style="filled",URL="$compute__potential__energy_8hh.html",tooltip=" "];
  Node11 -> Node12 [id="edge11_Node000011_Node000012",dir="back",color="steelblue1",style="solid",tooltip=" "];
  Node12 [id="Node000012",label="compute_potential_energy.cc",height=0.2,width=0.4,color="grey40", fillcolor="white", style="filled",URL="$compute__potential__energy_8cc.html",tooltip=" "];
  Node1 -> Node13 [id="edge12_Node000001_Node000013",dir="back",color="steelblue1",style="solid",tooltip=" "];
  Node13 [id="Node000013",label="compute_verlet_integration.hh",height=0.2,width=0.4,color="grey40", fillcolor="white", style="filled",URL="$compute__verlet__integration_8hh.html",tooltip=" "];
  Node13 -> Node14 [id="edge13_Node000013_Node000014",dir="back",color="steelblue1",style="solid",tooltip=" "];
  Node14 [id="Node000014",label="compute_verlet_integration.cc",height=0.2,width=0.4,color="grey40", fillcolor="white", style="filled",URL="$compute__verlet__integration_8cc.html",tooltip=" "];
  Node13 -> Node7 [id="edge14_Node000013_Node000007",dir="back",color="steelblue1",style="solid",tooltip=" "];
  Node13 -> Node4 [id="edge15_Node000013_Node000004",dir="back",color="steelblue1",style="solid",tooltip=" "];
  Node13 -> Node8 [id="edge16_Node000013_Node000008",dir="back",color="steelblue1",style="solid",tooltip=" "];
  Node13 -> Node9 [id="edge17_Node000013_Node000009",dir="back",color="steelblue1",style="solid",tooltip=" "];
}
