digraph "csv_reader.hh"
{
 // LATEX_PDF_SIZE
  bgcolor="transparent";
  edge [fontname=Helvetica,fontsize=10,labelfontname=Helvetica,labelfontsize=10];
  node [fontname=Helvetica,fontsize=10,shape=box,height=0.2,width=0.4];
  Node1 [id="Node000001",label="csv_reader.hh",height=0.2,width=0.4,color="gray40", fillcolor="grey60", style="filled", fontcolor="black",tooltip=" "];
  Node1 -> Node2 [id="edge1_Node000001_Node000002",color="steelblue1",style="solid",tooltip=" "];
  Node2 [id="Node000002",label="compute.hh",height=0.2,width=0.4,color="grey40", fillcolor="white", style="filled",URL="$compute_8hh.html",tooltip=" "];
  Node2 -> Node3 [id="edge2_Node000002_Node000003",color="steelblue1",style="solid",tooltip=" "];
  Node3 [id="Node000003",label="system.hh",height=0.2,width=0.4,color="grey40", fillcolor="white", style="filled",URL="$system_8hh.html",tooltip=" "];
  Node3 -> Node4 [id="edge3_Node000003_Node000004",color="steelblue1",style="solid",tooltip=" "];
  Node4 [id="Node000004",label="my_types.hh",height=0.2,width=0.4,color="grey40", fillcolor="white", style="filled",URL="$my__types_8hh.html",tooltip=" "];
  Node4 -> Node5 [id="edge4_Node000004_Node000005",color="steelblue1",style="solid",tooltip=" "];
  Node5 [id="Node000005",label="iostream",height=0.2,width=0.4,color="grey60", fillcolor="#E0E0E0", style="filled",tooltip=" "];
  Node4 -> Node6 [id="edge5_Node000004_Node000006",color="steelblue1",style="solid",tooltip=" "];
  Node6 [id="Node000006",label="complex",height=0.2,width=0.4,color="grey60", fillcolor="#E0E0E0", style="filled",tooltip=" "];
  Node3 -> Node7 [id="edge6_Node000003_Node000007",color="steelblue1",style="solid",tooltip=" "];
  Node7 [id="Node000007",label="particle.hh",height=0.2,width=0.4,color="grey40", fillcolor="white", style="filled",URL="$particle_8hh.html",tooltip=" "];
  Node7 -> Node8 [id="edge7_Node000007_Node000008",color="steelblue1",style="solid",tooltip=" "];
  Node8 [id="Node000008",label="vector.hh",height=0.2,width=0.4,color="grey40", fillcolor="white", style="filled",URL="$vector_8hh.html",tooltip=" "];
  Node8 -> Node4 [id="edge8_Node000008_Node000004",color="steelblue1",style="solid",tooltip=" "];
  Node8 -> Node9 [id="edge9_Node000008_Node000009",color="steelblue1",style="solid",tooltip=" "];
  Node9 [id="Node000009",label="array",height=0.2,width=0.4,color="grey60", fillcolor="#E0E0E0", style="filled",tooltip=" "];
  Node8 -> Node10 [id="edge10_Node000008_Node000010",color="steelblue1",style="solid",tooltip=" "];
  Node10 [id="Node000010",label="vector_inline.hh",height=0.2,width=0.4,color="grey40", fillcolor="white", style="filled",URL="$vector__inline_8hh.html",tooltip=" "];
  Node10 -> Node8 [id="edge11_Node000010_Node000008",color="steelblue1",style="solid",tooltip=" "];
  Node3 -> Node11 [id="edge12_Node000003_Node000011",color="steelblue1",style="solid",tooltip=" "];
  Node11 [id="Node000011",label="memory",height=0.2,width=0.4,color="grey60", fillcolor="#E0E0E0", style="filled",tooltip=" "];
  Node3 -> Node12 [id="edge13_Node000003_Node000012",color="steelblue1",style="solid",tooltip=" "];
  Node12 [id="Node000012",label="vector",height=0.2,width=0.4,color="grey60", fillcolor="#E0E0E0", style="filled",tooltip=" "];
  Node1 -> Node13 [id="edge14_Node000001_Node000013",color="steelblue1",style="solid",tooltip=" "];
  Node13 [id="Node000013",label="string",height=0.2,width=0.4,color="grey60", fillcolor="#E0E0E0", style="filled",tooltip=" "];
}
