digraph "Graphical Class Hierarchy"
{
 // LATEX_PDF_SIZE
  bgcolor="transparent";
  edge [fontname=Helvetica,fontsize=10,labelfontname=Helvetica,labelfontsize=10];
  node [fontname=Helvetica,fontsize=10,shape=box,height=0.2,width=0.4];
  rankdir="LR";
  Node0 [id="Node000000",label="ParticleList::iterator",height=0.2,width=0.4,color="grey60", fillcolor="#E0E0E0", style="filled",tooltip=" "];
  Node0 -> Node1 [id="edge16_Node000000_Node000001",dir="back",color="steelblue1",style="solid",tooltip=" "];
  Node1 [id="Node000001",label="System::iterator",height=0.2,width=0.4,color="grey40", fillcolor="white", style="filled",URL="$struct_system_1_1iterator.html",tooltip="Iterator class to erase the unique pointer on Particle."];
}
