digraph "particle.hh"
{
 // LATEX_PDF_SIZE
  bgcolor="transparent";
  edge [fontname=Helvetica,fontsize=10,labelfontname=Helvetica,labelfontsize=10];
  node [fontname=Helvetica,fontsize=10,shape=box,height=0.2,width=0.4];
  Node1 [id="Node000001",label="particle.hh",height=0.2,width=0.4,color="gray40", fillcolor="grey60", style="filled", fontcolor="black",tooltip=" "];
  Node1 -> Node2 [id="edge1_Node000001_Node000002",dir="back",color="steelblue1",style="solid",tooltip=" "];
  Node2 [id="Node000002",label="material_point.hh",height=0.2,width=0.4,color="grey40", fillcolor="white", style="filled",URL="$material__point_8hh.html",tooltip=" "];
  Node2 -> Node3 [id="edge2_Node000002_Node000003",dir="back",color="steelblue1",style="solid",tooltip=" "];
  Node3 [id="Node000003",label="compute_temperature.cc",height=0.2,width=0.4,color="grey40", fillcolor="white", style="filled",URL="$compute__temperature_8cc.html",tooltip=" "];
  Node2 -> Node4 [id="edge3_Node000002_Node000004",dir="back",color="steelblue1",style="solid",tooltip=" "];
  Node4 [id="Node000004",label="material_point.cc",height=0.2,width=0.4,color="grey40", fillcolor="white", style="filled",URL="$material__point_8cc.html",tooltip=" "];
  Node2 -> Node5 [id="edge4_Node000002_Node000005",dir="back",color="steelblue1",style="solid",tooltip=" "];
  Node5 [id="Node000005",label="material_points_factory.cc",height=0.2,width=0.4,color="grey40", fillcolor="white", style="filled",URL="$material__points__factory_8cc.html",tooltip=" "];
  Node2 -> Node6 [id="edge5_Node000002_Node000006",dir="back",color="steelblue1",style="solid",tooltip=" "];
  Node6 [id="Node000006",label="material_points_factory.hh",height=0.2,width=0.4,color="grey40", fillcolor="white", style="filled",URL="$material__points__factory_8hh.html",tooltip=" "];
  Node6 -> Node7 [id="edge6_Node000006_Node000007",dir="back",color="steelblue1",style="solid",tooltip=" "];
  Node7 [id="Node000007",label="main.cc",height=0.2,width=0.4,color="grey40", fillcolor="white", style="filled",URL="$main_8cc.html",tooltip=" "];
  Node6 -> Node5 [id="edge7_Node000006_Node000005",dir="back",color="steelblue1",style="solid",tooltip=" "];
  Node1 -> Node8 [id="edge8_Node000001_Node000008",dir="back",color="steelblue1",style="solid",tooltip=" "];
  Node8 [id="Node000008",label="particle.cc",height=0.2,width=0.4,color="grey40", fillcolor="white", style="filled",URL="$particle_8cc.html",tooltip=" "];
  Node1 -> Node9 [id="edge9_Node000001_Node000009",dir="back",color="steelblue1",style="solid",tooltip=" "];
  Node9 [id="Node000009",label="ping_pong_ball.hh",height=0.2,width=0.4,color="grey40", fillcolor="white", style="filled",URL="$ping__pong__ball_8hh.html",tooltip=" "];
  Node9 -> Node10 [id="edge10_Node000009_Node000010",dir="back",color="steelblue1",style="solid",tooltip=" "];
  Node10 [id="Node000010",label="compute_contact.cc",height=0.2,width=0.4,color="grey40", fillcolor="white", style="filled",URL="$compute__contact_8cc.html",tooltip=" "];
  Node9 -> Node11 [id="edge11_Node000009_Node000011",dir="back",color="steelblue1",style="solid",tooltip=" "];
  Node11 [id="Node000011",label="ping_pong_ball.cc",height=0.2,width=0.4,color="grey40", fillcolor="white", style="filled",URL="$ping__pong__ball_8cc.html",tooltip=" "];
  Node9 -> Node12 [id="edge12_Node000009_Node000012",dir="back",color="steelblue1",style="solid",tooltip=" "];
  Node12 [id="Node000012",label="ping_pong_balls_factory.cc",height=0.2,width=0.4,color="grey40", fillcolor="white", style="filled",URL="$ping__pong__balls__factory_8cc.html",tooltip=" "];
  Node9 -> Node13 [id="edge13_Node000009_Node000013",dir="back",color="steelblue1",style="solid",tooltip=" "];
  Node13 [id="Node000013",label="ping_pong_balls_factory.hh",height=0.2,width=0.4,color="grey40", fillcolor="white", style="filled",URL="$ping__pong__balls__factory_8hh.html",tooltip=" "];
  Node13 -> Node7 [id="edge14_Node000013_Node000007",dir="back",color="steelblue1",style="solid",tooltip=" "];
  Node13 -> Node12 [id="edge15_Node000013_Node000012",dir="back",color="steelblue1",style="solid",tooltip=" "];
  Node1 -> Node14 [id="edge16_Node000001_Node000014",dir="back",color="steelblue1",style="solid",tooltip=" "];
  Node14 [id="Node000014",label="planet.hh",height=0.2,width=0.4,color="grey40", fillcolor="white", style="filled",URL="$planet_8hh.html",tooltip=" "];
  Node14 -> Node15 [id="edge17_Node000014_Node000015",dir="back",color="steelblue1",style="solid",tooltip=" "];
  Node15 [id="Node000015",label="planet.cc",height=0.2,width=0.4,color="grey40", fillcolor="white", style="filled",URL="$planet_8cc.html",tooltip=" "];
  Node14 -> Node16 [id="edge18_Node000014_Node000016",dir="back",color="steelblue1",style="solid",tooltip=" "];
  Node16 [id="Node000016",label="planets_factory.cc",height=0.2,width=0.4,color="grey40", fillcolor="white", style="filled",URL="$planets__factory_8cc.html",tooltip=" "];
  Node14 -> Node17 [id="edge19_Node000014_Node000017",dir="back",color="steelblue1",style="solid",tooltip=" "];
  Node17 [id="Node000017",label="planets_factory.hh",height=0.2,width=0.4,color="grey40", fillcolor="white", style="filled",URL="$planets__factory_8hh.html",tooltip=" "];
  Node17 -> Node7 [id="edge20_Node000017_Node000007",dir="back",color="steelblue1",style="solid",tooltip=" "];
  Node17 -> Node18 [id="edge21_Node000017_Node000018",dir="back",color="steelblue1",style="solid",tooltip=" "];
  Node18 [id="Node000018",label="particles_factory_interface.cc",height=0.2,width=0.4,color="grey40", fillcolor="white", style="filled",URL="$particles__factory__interface_8cc.html",tooltip=" "];
  Node17 -> Node16 [id="edge22_Node000017_Node000016",dir="back",color="steelblue1",style="solid",tooltip=" "];
  Node17 -> Node19 [id="edge23_Node000017_Node000019",dir="back",color="steelblue1",style="solid",tooltip=" "];
  Node19 [id="Node000019",label="test_kepler.cc",height=0.2,width=0.4,color="grey40", fillcolor="white", style="filled",URL="$test__kepler_8cc.html",tooltip=" "];
  Node14 -> Node19 [id="edge24_Node000014_Node000019",dir="back",color="steelblue1",style="solid",tooltip=" "];
  Node1 -> Node20 [id="edge25_Node000001_Node000020",dir="back",color="steelblue1",style="solid",tooltip=" "];
  Node20 [id="Node000020",label="system.hh",height=0.2,width=0.4,color="grey40", fillcolor="white", style="filled",URL="$system_8hh.html",tooltip=" "];
  Node20 -> Node21 [id="edge26_Node000020_Node000021",dir="back",color="steelblue1",style="solid",tooltip=" "];
  Node21 [id="Node000021",label="compute.hh",height=0.2,width=0.4,color="grey40", fillcolor="white", style="filled",URL="$compute_8hh.html",tooltip=" "];
  Node21 -> Node22 [id="edge27_Node000021_Node000022",dir="back",color="steelblue1",style="solid",tooltip=" "];
  Node22 [id="Node000022",label="compute_boundary.hh",height=0.2,width=0.4,color="grey40", fillcolor="white", style="filled",URL="$compute__boundary_8hh.html",tooltip=" "];
  Node22 -> Node23 [id="edge28_Node000022_Node000023",dir="back",color="steelblue1",style="solid",tooltip=" "];
  Node23 [id="Node000023",label="compute_boundary.cc",height=0.2,width=0.4,color="grey40", fillcolor="white", style="filled",URL="$compute__boundary_8cc.html",tooltip=" "];
  Node21 -> Node24 [id="edge29_Node000021_Node000024",dir="back",color="steelblue1",style="solid",tooltip=" "];
  Node24 [id="Node000024",label="compute_energy.hh",height=0.2,width=0.4,color="grey40", fillcolor="white", style="filled",URL="$compute__energy_8hh.html",tooltip=" "];
  Node24 -> Node25 [id="edge30_Node000024_Node000025",dir="back",color="steelblue1",style="solid",tooltip=" "];
  Node25 [id="Node000025",label="compute_energy.cc",height=0.2,width=0.4,color="grey40", fillcolor="white", style="filled",URL="$compute__energy_8cc.html",tooltip=" "];
  Node24 -> Node26 [id="edge31_Node000024_Node000026",dir="back",color="steelblue1",style="solid",tooltip=" "];
  Node26 [id="Node000026",label="compute_kinetic_energy.hh",height=0.2,width=0.4,color="grey40", fillcolor="white", style="filled",URL="$compute__kinetic__energy_8hh.html",tooltip=" "];
  Node26 -> Node27 [id="edge32_Node000026_Node000027",dir="back",color="steelblue1",style="solid",tooltip=" "];
  Node27 [id="Node000027",label="compute_kinetic_energy.cc",height=0.2,width=0.4,color="grey40", fillcolor="white", style="filled",URL="$compute__kinetic__energy_8cc.html",tooltip=" "];
  Node24 -> Node28 [id="edge33_Node000024_Node000028",dir="back",color="steelblue1",style="solid",tooltip=" "];
  Node28 [id="Node000028",label="compute_potential_energy.hh",height=0.2,width=0.4,color="grey40", fillcolor="white", style="filled",URL="$compute__potential__energy_8hh.html",tooltip=" "];
  Node28 -> Node29 [id="edge34_Node000028_Node000029",dir="back",color="steelblue1",style="solid",tooltip=" "];
  Node29 [id="Node000029",label="compute_potential_energy.cc",height=0.2,width=0.4,color="grey40", fillcolor="white", style="filled",URL="$compute__potential__energy_8cc.html",tooltip=" "];
  Node21 -> Node30 [id="edge35_Node000021_Node000030",dir="back",color="steelblue1",style="solid",tooltip=" "];
  Node30 [id="Node000030",label="compute_interaction.hh",height=0.2,width=0.4,color="grey40", fillcolor="white", style="filled",URL="$compute__interaction_8hh.html",tooltip=" "];
  Node30 -> Node31 [id="edge36_Node000030_Node000031",dir="back",color="steelblue1",style="solid",tooltip=" "];
  Node31 [id="Node000031",label="compute_contact.hh",height=0.2,width=0.4,color="grey40", fillcolor="white", style="filled",URL="$compute__contact_8hh.html",tooltip=" "];
  Node31 -> Node10 [id="edge37_Node000031_Node000010",dir="back",color="steelblue1",style="solid",tooltip=" "];
  Node31 -> Node12 [id="edge38_Node000031_Node000012",dir="back",color="steelblue1",style="solid",tooltip=" "];
  Node30 -> Node32 [id="edge39_Node000030_Node000032",dir="back",color="steelblue1",style="solid",tooltip=" "];
  Node32 [id="Node000032",label="compute_gravity.hh",height=0.2,width=0.4,color="grey40", fillcolor="white", style="filled",URL="$compute__gravity_8hh.html",tooltip=" "];
  Node32 -> Node33 [id="edge40_Node000032_Node000033",dir="back",color="steelblue1",style="solid",tooltip=" "];
  Node33 [id="Node000033",label="compute_gravity.cc",height=0.2,width=0.4,color="grey40", fillcolor="white", style="filled",URL="$compute__gravity_8cc.html",tooltip=" "];
  Node32 -> Node7 [id="edge41_Node000032_Node000007",dir="back",color="steelblue1",style="solid",tooltip=" "];
  Node32 -> Node16 [id="edge42_Node000032_Node000016",dir="back",color="steelblue1",style="solid",tooltip=" "];
  Node32 -> Node19 [id="edge43_Node000032_Node000019",dir="back",color="steelblue1",style="solid",tooltip=" "];
  Node30 -> Node34 [id="edge44_Node000030_Node000034",dir="back",color="steelblue1",style="solid",tooltip=" "];
  Node34 [id="Node000034",label="compute_interaction.cc",height=0.2,width=0.4,color="grey40", fillcolor="white", style="filled",URL="$compute__interaction_8cc.html",tooltip=" "];
  Node30 -> Node28 [id="edge45_Node000030_Node000028",dir="back",color="steelblue1",style="solid",tooltip=" "];
  Node30 -> Node35 [id="edge46_Node000030_Node000035",dir="back",color="steelblue1",style="solid",tooltip=" "];
  Node35 [id="Node000035",label="compute_verlet_integration.hh",height=0.2,width=0.4,color="grey40", fillcolor="white", style="filled",URL="$compute__verlet__integration_8hh.html",tooltip=" "];
  Node35 -> Node36 [id="edge47_Node000035_Node000036",dir="back",color="steelblue1",style="solid",tooltip=" "];
  Node36 [id="Node000036",label="compute_verlet_integration.cc",height=0.2,width=0.4,color="grey40", fillcolor="white", style="filled",URL="$compute__verlet__integration_8cc.html",tooltip=" "];
  Node35 -> Node7 [id="edge48_Node000035_Node000007",dir="back",color="steelblue1",style="solid",tooltip=" "];
  Node35 -> Node12 [id="edge49_Node000035_Node000012",dir="back",color="steelblue1",style="solid",tooltip=" "];
  Node35 -> Node16 [id="edge50_Node000035_Node000016",dir="back",color="steelblue1",style="solid",tooltip=" "];
  Node35 -> Node19 [id="edge51_Node000035_Node000019",dir="back",color="steelblue1",style="solid",tooltip=" "];
  Node21 -> Node37 [id="edge52_Node000021_Node000037",dir="back",color="steelblue1",style="solid",tooltip=" "];
  Node37 [id="Node000037",label="compute_temperature.hh",height=0.2,width=0.4,color="grey40", fillcolor="white", style="filled",URL="$compute__temperature_8hh.html",tooltip=" "];
  Node37 -> Node3 [id="edge53_Node000037_Node000003",dir="back",color="steelblue1",style="solid",tooltip=" "];
  Node37 -> Node5 [id="edge54_Node000037_Node000005",dir="back",color="steelblue1",style="solid",tooltip=" "];
  Node21 -> Node35 [id="edge55_Node000021_Node000035",dir="back",color="steelblue1",style="solid",tooltip=" "];
  Node21 -> Node38 [id="edge56_Node000021_Node000038",dir="back",color="steelblue1",style="solid",tooltip=" "];
  Node38 [id="Node000038",label="csv_reader.hh",height=0.2,width=0.4,color="grey40", fillcolor="white", style="filled",URL="$csv__reader_8hh.html",tooltip=" "];
  Node38 -> Node39 [id="edge57_Node000038_Node000039",dir="back",color="steelblue1",style="solid",tooltip=" "];
  Node39 [id="Node000039",label="csv_reader.cc",height=0.2,width=0.4,color="grey40", fillcolor="white", style="filled",URL="$csv__reader_8cc.html",tooltip=" "];
  Node38 -> Node7 [id="edge58_Node000038_Node000007",dir="back",color="steelblue1",style="solid",tooltip=" "];
  Node38 -> Node5 [id="edge59_Node000038_Node000005",dir="back",color="steelblue1",style="solid",tooltip=" "];
  Node38 -> Node12 [id="edge60_Node000038_Node000012",dir="back",color="steelblue1",style="solid",tooltip=" "];
  Node38 -> Node16 [id="edge61_Node000038_Node000016",dir="back",color="steelblue1",style="solid",tooltip=" "];
  Node38 -> Node19 [id="edge62_Node000038_Node000019",dir="back",color="steelblue1",style="solid",tooltip=" "];
  Node21 -> Node40 [id="edge63_Node000021_Node000040",dir="back",color="steelblue1",style="solid",tooltip=" "];
  Node40 [id="Node000040",label="csv_writer.hh",height=0.2,width=0.4,color="grey40", fillcolor="white", style="filled",URL="$csv__writer_8hh.html",tooltip=" "];
  Node40 -> Node41 [id="edge64_Node000040_Node000041",dir="back",color="steelblue1",style="solid",tooltip=" "];
  Node41 [id="Node000041",label="csv_writer.cc",height=0.2,width=0.4,color="grey40", fillcolor="white", style="filled",URL="$csv__writer_8cc.html",tooltip=" "];
  Node40 -> Node7 [id="edge65_Node000040_Node000007",dir="back",color="steelblue1",style="solid",tooltip=" "];
  Node40 -> Node5 [id="edge66_Node000040_Node000005",dir="back",color="steelblue1",style="solid",tooltip=" "];
  Node40 -> Node12 [id="edge67_Node000040_Node000012",dir="back",color="steelblue1",style="solid",tooltip=" "];
  Node40 -> Node16 [id="edge68_Node000040_Node000016",dir="back",color="steelblue1",style="solid",tooltip=" "];
  Node40 -> Node42 [id="edge69_Node000040_Node000042",dir="back",color="steelblue1",style="solid",tooltip=" "];
  Node42 [id="Node000042",label="system_evolution.cc",height=0.2,width=0.4,color="grey40", fillcolor="white", style="filled",URL="$system__evolution_8cc.html",tooltip=" "];
  Node40 -> Node19 [id="edge70_Node000040_Node000019",dir="back",color="steelblue1",style="solid",tooltip=" "];
  Node21 -> Node43 [id="edge71_Node000021_Node000043",dir="back",color="steelblue1",style="solid",tooltip=" "];
  Node43 [id="Node000043",label="system_evolution.hh",height=0.2,width=0.4,color="grey40", fillcolor="white", style="filled",URL="$system__evolution_8hh.html",tooltip=" "];
  Node43 -> Node44 [id="edge72_Node000043_Node000044",dir="back",color="steelblue1",style="solid",tooltip=" "];
  Node44 [id="Node000044",label="particles_factory_interface.hh",height=0.2,width=0.4,color="grey40", fillcolor="white", style="filled",URL="$particles__factory__interface_8hh.html",tooltip=" "];
  Node44 -> Node39 [id="edge73_Node000044_Node000039",dir="back",color="steelblue1",style="solid",tooltip=" "];
  Node44 -> Node6 [id="edge74_Node000044_Node000006",dir="back",color="steelblue1",style="solid",tooltip=" "];
  Node44 -> Node18 [id="edge75_Node000044_Node000018",dir="back",color="steelblue1",style="solid",tooltip=" "];
  Node44 -> Node13 [id="edge76_Node000044_Node000013",dir="back",color="steelblue1",style="solid",tooltip=" "];
  Node44 -> Node17 [id="edge77_Node000044_Node000017",dir="back",color="steelblue1",style="solid",tooltip=" "];
  Node43 -> Node42 [id="edge78_Node000043_Node000042",dir="back",color="steelblue1",style="solid",tooltip=" "];
  Node20 -> Node7 [id="edge79_Node000020_Node000007",dir="back",color="steelblue1",style="solid",tooltip=" "];
  Node20 -> Node45 [id="edge80_Node000020_Node000045",dir="back",color="steelblue1",style="solid",tooltip=" "];
  Node45 [id="Node000045",label="system.cc",height=0.2,width=0.4,color="grey40", fillcolor="white", style="filled",URL="$system_8cc.html",tooltip=" "];
  Node20 -> Node43 [id="edge81_Node000020_Node000043",dir="back",color="steelblue1",style="solid",tooltip=" "];
  Node20 -> Node19 [id="edge82_Node000020_Node000019",dir="back",color="steelblue1",style="solid",tooltip=" "];
}
