digraph "planet.hh"
{
 // LATEX_PDF_SIZE
  bgcolor="transparent";
  edge [fontname=Helvetica,fontsize=10,labelfontname=Helvetica,labelfontsize=10];
  node [fontname=Helvetica,fontsize=10,shape=box,height=0.2,width=0.4];
  Node1 [id="Node000001",label="planet.hh",height=0.2,width=0.4,color="gray40", fillcolor="grey60", style="filled", fontcolor="black",tooltip=" "];
  Node1 -> Node2 [id="edge1_Node000001_Node000002",color="steelblue1",style="solid",tooltip=" "];
  Node2 [id="Node000002",label="particle.hh",height=0.2,width=0.4,color="grey40", fillcolor="white", style="filled",URL="$particle_8hh.html",tooltip=" "];
  Node2 -> Node3 [id="edge2_Node000002_Node000003",color="steelblue1",style="solid",tooltip=" "];
  Node3 [id="Node000003",label="vector.hh",height=0.2,width=0.4,color="grey40", fillcolor="white", style="filled",URL="$vector_8hh.html",tooltip=" "];
  Node3 -> Node4 [id="edge3_Node000003_Node000004",color="steelblue1",style="solid",tooltip=" "];
  Node4 [id="Node000004",label="my_types.hh",height=0.2,width=0.4,color="grey40", fillcolor="white", style="filled",URL="$my__types_8hh.html",tooltip=" "];
  Node4 -> Node5 [id="edge4_Node000004_Node000005",color="steelblue1",style="solid",tooltip=" "];
  Node5 [id="Node000005",label="iostream",height=0.2,width=0.4,color="grey60", fillcolor="#E0E0E0", style="filled",tooltip=" "];
  Node4 -> Node6 [id="edge5_Node000004_Node000006",color="steelblue1",style="solid",tooltip=" "];
  Node6 [id="Node000006",label="complex",height=0.2,width=0.4,color="grey60", fillcolor="#E0E0E0", style="filled",tooltip=" "];
  Node3 -> Node7 [id="edge6_Node000003_Node000007",color="steelblue1",style="solid",tooltip=" "];
  Node7 [id="Node000007",label="array",height=0.2,width=0.4,color="grey60", fillcolor="#E0E0E0", style="filled",tooltip=" "];
  Node3 -> Node8 [id="edge7_Node000003_Node000008",color="steelblue1",style="solid",tooltip=" "];
  Node8 [id="Node000008",label="vector_inline.hh",height=0.2,width=0.4,color="grey40", fillcolor="white", style="filled",URL="$vector__inline_8hh.html",tooltip=" "];
  Node8 -> Node3 [id="edge8_Node000008_Node000003",color="steelblue1",style="solid",tooltip=" "];
  Node1 -> Node5 [id="edge9_Node000001_Node000005",color="steelblue1",style="solid",tooltip=" "];
}
