digraph "planets_factory.hh"
{
 // LATEX_PDF_SIZE
  bgcolor="transparent";
  edge [fontname=Helvetica,fontsize=10,labelfontname=Helvetica,labelfontsize=10];
  node [fontname=Helvetica,fontsize=10,shape=box,height=0.2,width=0.4];
  Node1 [id="Node000001",label="planets_factory.hh",height=0.2,width=0.4,color="gray40", fillcolor="grey60", style="filled", fontcolor="black",tooltip=" "];
  Node1 -> Node2 [id="edge1_Node000001_Node000002",color="steelblue1",style="solid",tooltip=" "];
  Node2 [id="Node000002",label="particles_factory_interface.hh",height=0.2,width=0.4,color="grey40", fillcolor="white", style="filled",URL="$particles__factory__interface_8hh.html",tooltip=" "];
  Node2 -> Node3 [id="edge2_Node000002_Node000003",color="steelblue1",style="solid",tooltip=" "];
  Node3 [id="Node000003",label="system_evolution.hh",height=0.2,width=0.4,color="grey40", fillcolor="white", style="filled",URL="$system__evolution_8hh.html",tooltip=" "];
  Node3 -> Node4 [id="edge3_Node000003_Node000004",color="steelblue1",style="solid",tooltip=" "];
  Node4 [id="Node000004",label="compute.hh",height=0.2,width=0.4,color="grey40", fillcolor="white", style="filled",URL="$compute_8hh.html",tooltip=" "];
  Node4 -> Node5 [id="edge4_Node000004_Node000005",color="steelblue1",style="solid",tooltip=" "];
  Node5 [id="Node000005",label="system.hh",height=0.2,width=0.4,color="grey40", fillcolor="white", style="filled",URL="$system_8hh.html",tooltip=" "];
  Node5 -> Node6 [id="edge5_Node000005_Node000006",color="steelblue1",style="solid",tooltip=" "];
  Node6 [id="Node000006",label="my_types.hh",height=0.2,width=0.4,color="grey40", fillcolor="white", style="filled",URL="$my__types_8hh.html",tooltip=" "];
  Node6 -> Node7 [id="edge6_Node000006_Node000007",color="steelblue1",style="solid",tooltip=" "];
  Node7 [id="Node000007",label="iostream",height=0.2,width=0.4,color="grey60", fillcolor="#E0E0E0", style="filled",tooltip=" "];
  Node6 -> Node8 [id="edge7_Node000006_Node000008",color="steelblue1",style="solid",tooltip=" "];
  Node8 [id="Node000008",label="complex",height=0.2,width=0.4,color="grey60", fillcolor="#E0E0E0", style="filled",tooltip=" "];
  Node5 -> Node9 [id="edge8_Node000005_Node000009",color="steelblue1",style="solid",tooltip=" "];
  Node9 [id="Node000009",label="particle.hh",height=0.2,width=0.4,color="grey40", fillcolor="white", style="filled",URL="$particle_8hh.html",tooltip=" "];
  Node9 -> Node10 [id="edge9_Node000009_Node000010",color="steelblue1",style="solid",tooltip=" "];
  Node10 [id="Node000010",label="vector.hh",height=0.2,width=0.4,color="grey40", fillcolor="white", style="filled",URL="$vector_8hh.html",tooltip=" "];
  Node10 -> Node6 [id="edge10_Node000010_Node000006",color="steelblue1",style="solid",tooltip=" "];
  Node10 -> Node11 [id="edge11_Node000010_Node000011",color="steelblue1",style="solid",tooltip=" "];
  Node11 [id="Node000011",label="array",height=0.2,width=0.4,color="grey60", fillcolor="#E0E0E0", style="filled",tooltip=" "];
  Node10 -> Node12 [id="edge12_Node000010_Node000012",color="steelblue1",style="solid",tooltip=" "];
  Node12 [id="Node000012",label="vector_inline.hh",height=0.2,width=0.4,color="grey40", fillcolor="white", style="filled",URL="$vector__inline_8hh.html",tooltip=" "];
  Node12 -> Node10 [id="edge13_Node000012_Node000010",color="steelblue1",style="solid",tooltip=" "];
  Node5 -> Node13 [id="edge14_Node000005_Node000013",color="steelblue1",style="solid",tooltip=" "];
  Node13 [id="Node000013",label="memory",height=0.2,width=0.4,color="grey60", fillcolor="#E0E0E0", style="filled",tooltip=" "];
  Node5 -> Node14 [id="edge15_Node000005_Node000014",color="steelblue1",style="solid",tooltip=" "];
  Node14 [id="Node000014",label="vector",height=0.2,width=0.4,color="grey60", fillcolor="#E0E0E0", style="filled",tooltip=" "];
  Node3 -> Node5 [id="edge16_Node000003_Node000005",color="steelblue1",style="solid",tooltip=" "];
  Node1 -> Node15 [id="edge17_Node000001_Node000015",color="steelblue1",style="solid",tooltip=" "];
  Node15 [id="Node000015",label="planet.hh",height=0.2,width=0.4,color="grey40", fillcolor="white", style="filled",URL="$planet_8hh.html",tooltip=" "];
  Node15 -> Node9 [id="edge18_Node000015_Node000009",color="steelblue1",style="solid",tooltip=" "];
  Node15 -> Node7 [id="edge19_Node000015_Node000007",color="steelblue1",style="solid",tooltip=" "];
}
