digraph "planets_factory.hh"
{
 // LATEX_PDF_SIZE
  bgcolor="transparent";
  edge [fontname=Helvetica,fontsize=10,labelfontname=Helvetica,labelfontsize=10];
  node [fontname=Helvetica,fontsize=10,shape=box,height=0.2,width=0.4];
  Node1 [id="Node000001",label="planets_factory.hh",height=0.2,width=0.4,color="gray40", fillcolor="grey60", style="filled", fontcolor="black",tooltip=" "];
  Node1 -> Node2 [id="edge1_Node000001_Node000002",dir="back",color="steelblue1",style="solid",tooltip=" "];
  Node2 [id="Node000002",label="main.cc",height=0.2,width=0.4,color="grey40", fillcolor="white", style="filled",URL="$main_8cc.html",tooltip=" "];
  Node1 -> Node3 [id="edge2_Node000001_Node000003",dir="back",color="steelblue1",style="solid",tooltip=" "];
  Node3 [id="Node000003",label="particles_factory_interface.cc",height=0.2,width=0.4,color="grey40", fillcolor="white", style="filled",URL="$particles__factory__interface_8cc.html",tooltip=" "];
  Node1 -> Node4 [id="edge3_Node000001_Node000004",dir="back",color="steelblue1",style="solid",tooltip=" "];
  Node4 [id="Node000004",label="planets_factory.cc",height=0.2,width=0.4,color="grey40", fillcolor="white", style="filled",URL="$planets__factory_8cc.html",tooltip=" "];
  Node1 -> Node5 [id="edge4_Node000001_Node000005",dir="back",color="steelblue1",style="solid",tooltip=" "];
  Node5 [id="Node000005",label="test_kepler.cc",height=0.2,width=0.4,color="grey40", fillcolor="white", style="filled",URL="$test__kepler_8cc.html",tooltip=" "];
}
